20

C          0.94759       -0.76728       -0.66847
N          2.36514       -0.34119       -0.69506
C          0.05178        0.35201       -0.12062
C          0.35812        0.67310        1.34158
S         -0.68608        2.03097        1.97780
C         -2.26962        1.16583        2.11353
C          0.49746       -1.16631       -2.07882
O          1.13898       -1.03477       -3.11024
O         -0.72029       -1.74302       -2.10118
H          0.87962       -1.66077       -0.03725
H          2.45139        0.44492       -1.34513
H          2.91381       -1.08286       -1.13714
H         -0.99628        0.04579       -0.21993
H          0.16767        1.25263       -0.73903
H          1.39706        0.99917        1.45241
H          0.22404       -0.20944        1.97606
H         -2.66062        0.91393        1.12518
H         -2.99113        1.82263        2.60720
H         -2.16246        0.25856        2.71345
H         -0.86379       -1.96127       -3.04650
